[
  {
    "id": 1,
    "name": "Appointment Request",
    "description": "Schedule appointments and meetings effortlessly.",
    "imageLink": "https://chatbot-project.s3.ap-south-1.amazonaws.com/botgo/assets/form_template_01.png",
    "formData": [
      {
        "type": "formLogo",
        "imgSrc": "https://devdashboard.botgo.io/media/logos/logo.png",
        "alignment": "center",
        "label": "https://devdashboard.botgo.io/media/logos/logo.png"
      },
      {
        "type": "divider",
        "color": "#ffffff",
        "thickness": 1
      },
      {
        "type": "heading",
        "formHeading": "Appointment Request Form",
        "alignment": "center",
        "color": "#ffffff",
        "size": "h4"
      },
      {
        "type": "subheading",
        "formSubHeading": "Let us know how we can help you!",
        "alignment": "center"
      },
      {
        "type": "text",
        "label": "Full Name",
        "placeholder": "Full Name"
      },
      {
        "type": "text",
        "label": "Phone number:",
        "placeholder": "Enter you mobile number"
      },
      {
        "type": "button",
        "buttonType": "submit",
        "id": "kt_sign_up_submit",
        "text": "Submit",
        "btnTxtColor": "#ffffff",
        "btnBgColor": "#4c72fb"
      },
      {
        "type": "text",
        "label": "Email:",
        "placeholder": "Enter you email"
      },
      {
        "type": "heading",
        "formHeading": "Address:",
        "alignment": "left",
        "color": "#ffffff",
        "size": "h6"
      },
      {
        "type": "text",
        "label": "Street Address:",
        "placeholder": "Enter you street address"
      },
      {
        "type": "text",
        "label": "Street Address Line 2",
        "placeholder": "Enter your street address line 2"
      },
      {
        "type": "text",
        "label": "City",
        "placeholder": "Enter your city"
      },
      {
        "type": "text",
        "label": "State",
        "placeholder": "Enter your state"
      },
      {
        "type": "text",
        "label": "Postal /Zip code",
        "placeholder": "Enter your Postal /Zip code",
        "id": 1700647749916
      },
      {
        "type": "datetime",
        "label": "What date and time work best for you?",
        "color": "#ffffff"
      },
      {
        "type": "datetime",
        "label": "Any other specific date and time, if the above selection is not suitable.",
        "color": "#ffffff",
        "id": 1700647867210
      },
      {
        "type": "textarea",
        "label": "What services are you interested in?",
        "rows": 4,
        "placeholder": "Type here....."
      },
      {
        "type": "heading",
        "formHeading": "Would you like to be notified about promotional services?",
        "alignment": "left",
        "color": "#ffffff",
        "size": "h6"
      },
      {
        "type": "switch",
        "label": "Yes",
        "color": "#ffffff"
      },
      {
        "type": "switch",
        "label": "No",
        "color": "#ffffff"
      }
    ]
  },
  {
    "id": 2,
    "name": "Hotel Booking ",
    "description": "Allow users to book accommodations with this form.",
    "imageLink": "https://chatbot-project.s3.ap-south-1.amazonaws.com/botgo/assets/form_template_02.png",
    "formData": [
      {
        "type": "heading",
        "formHeading": "Hotel Booking",
        "alignment": "center",
        "color": "#ffffff",
        "size": "h1"
      },
      {
        "type": "subheading",
        "formSubHeading": "Experience something new every moment",
        "alignment": "center"
      },
      {
        "type": "text",
        "label": "Full Name",
        "placeholder": "Full name"
      },
      {
        "type": "button",
        "buttonType": "submit",
        "id": "kt_sign_up_submit",
        "text": "Next",
        "btnBgColor": "#19bd5b"
      },
      {
        "type": "banner",
        "bannerSrc": "https://www.jotform.com/uploads/ugurg/form_files/hotel-banner.63885da4032201.67905415.png",
        "label": "https://www.jotform.com/uploads/ugurg/form_files/hotel-banner.63885da4032201.67905415.png"
      },
      {
        "type": "text",
        "label": "Email:",
        "placeholder": "Enter you email"
      },
      {
        "type": "select",
        "label": "Room Type",
        "name": "null",
        "options": [
          {
            "value": "null",
            "text": "Standard Room (1 to 2 People)"
          },
          {
            "value": "null",
            "text": "Family Room (1 to 4 People)",
            "selected": true
          },
          {
            "value": "null",
            "text": "Private Room (1 to 3 People)"
          },
          {
            "text": "Mix Dorm Room (6 People)",
            "value": "",
            "selected": false
          },
          {
            "text": "Female Dorm Room (6 People)",
            "value": "",
            "selected": false
          },
          {
            "text": "Male Dorm Room (6 People)",
            "value": "",
            "selected": false
          }
        ]
      },
      {
        "type": "text",
        "label": "Number of Guests ",
        "placeholder": "0"
      },
      {
        "type": "datetime",
        "label": "Arrival Date & Time",
        "color": "#ffffff"
      },
      {
        "type": "date",
        "label": "Departure Date ",
        "color": "#ffffff"
      },
      {
        "type": "radio",
        "label": "Free Pickup? ",
        "color": "#ffffff",
        "name": "radio",
        "options": [
          {
            "value": "null",
            "text": "Yes Please! - Pick me up on arrival"
          },
          {
            "value": "null",
            "text": "No Thanks - I'll make my own way there"
          }
        ]
      },
      {
        "type": "text",
        "label": " Flight Number",
        "placeholder": ""
      },
      {
        "type": "textarea",
        "label": "Special Requests",
        "rows": "5",
        "placeholder": "",
        "color": "#050505"
      }
    ]
  },
  {
    "id": 3,
    "name": "Job Application",
    "description": "Gather information from job applicants efficiently",
    "imageLink": "https://chatbot-project.s3.ap-south-1.amazonaws.com/botgo/assets/form_template_03.png",
    "formData": [
      {
        "type": "heading",
        "formHeading": "Job Application",
        "alignment": "left",
        "color": "#ffffff",
        "size": "h1"
      },
      {
        "type": "subheading",
        "formSubHeading": "Please complete the form below to apply for a position with us."
      },
      {
        "type": "divider",
        "color": "#ffffff",
        "thickness": 1
      },
      {
        "type": "text",
        "label": "Full Name",
        "placeholder": "Full name"
      },
      {
        "type": "date",
        "label": "Birth Date",
        "color": "#ffffff"
      },
      {
        "type": "heading",
        "formHeading": "Current Address",
        "alignment": "left",
        "color": "#ffffff",
        "size": "h6"
      },
      {
        "type": "text",
        "label": "Street Address",
        "placeholder": "Street address"
      },
      {
        "type": "text",
        "label": "Street Address Line 2",
        "placeholder": "Street address line 2",
        "id": 1700649407240
      },
      {
        "type": "text",
        "label": "City",
        "placeholder": "Enter your city"
      },
      {
        "type": "text",
        "label": "State:",
        "placeholder": "Enter you State"
      },
      {
        "type": "text",
        "label": "Postal / Zip Code",
        "placeholder": "Enter your Postal / Zip Code"
      },
      {
        "type": "text",
        "label": "Email:",
        "placeholder": "Enter you email"
      },
      {
        "type": "text",
        "label": "Phone number:",
        "placeholder": "Enter you mobile number"
      },
      {
        "type": "text",
        "label": "LinkedIn ",
        "placeholder": ""
      },
      {
        "type": "divider",
        "color": "#000000",
        "thickness": 1
      },
      {
        "type": "select",
        "label": "Position Applied",
        "name": "null",
        "options": [
          {
            "value": "null",
            "text": "Marketing Specialist"
          },
          {
            "value": "null",
            "text": "Sales Manager",
            "selected": true
          },
          {
            "value": "null",
            "text": "Product Lead"
          },
          {
            "text": "Developer",
            "value": "",
            "selected": false
          }
        ]
      },
      {
        "type": "select",
        "label": "How did you hear about us",
        "name": "null",
        "options": [
          {
            "value": "null",
            "text": "LinkedIn"
          },
          {
            "value": "null",
            "text": "Event",
            "selected": true
          },
          {
            "value": "null",
            "text": "Social Media"
          },
          {
            "text": "Company Website",
            "value": "",
            "selected": false
          },
          {
            "text": "Family / Friend",
            "value": "",
            "selected": false
          },
          {
            "text": "Other",
            "value": "",
            "selected": false
          }
        ]
      },
      {
        "type": "date",
        "label": "Available Start Date",
        "color": "#000000"
      },
      {
        "type": "file",
        "label": "Upload Your Resume",
        "color": "#000000",
        "name": "file",
        "accept": ".pdf, .doc, .docx"
      },
      {
        "type": "button",
        "buttonType": "submit",
        "id": "kt_sign_up_submit",
        "text": "Next",
        "btnBgColor": "#050505"
      },
      {
        "type": "textarea",
        "label": "Cover Letter",
        "rows": 4,
        "placeholder": ""
      },
      {
        "type": "signature",
        "label": "applicant's signature",
        "color": "#ffdd00",
        "padColor": "#f5f8fa",
        "alignment": "left",
        "width": 500,
        "height": 200
      }
    ]
  },
  {
    "id": 4,
    "name": "General Enquiry Contact",
    "description": "Handle general inquiries and requests through this form.",
    "imageLink": "https://chatbot-project.s3.ap-south-1.amazonaws.com/botgo/assets/form_template_05.png",
    "formData": [
      {
        "type": "heading",
        "formHeading": "Contact Us",
        "alignment": "left",
        "color": "#000000",
        "size": "h1"
      },
      {
        "type": "subheading",
        "formSubHeading": "Please fill this form in a decent manner"
      },
      {
        "type": "text",
        "label": "Full Name",
        "placeholder": "Full name"
      },
      {
        "type": "button",
        "buttonType": "submit",
        "id": "kt_sign_up_submit",
        "text": "Next",
        "btnBgColor": "#9e9e9e"
      },
      {
        "type": "text",
        "label": "Email:",
        "placeholder": "Enter you email"
      },
      {
        "type": "textarea",
        "label": "Message",
        "rows": "5",
        "placeholder": "Enter your message"
      }
    ]
  },
  {
    "id": 5,
    "name": "Complain ",
    "description": "Enable users to submit complaints and feedback easily.",
    "imageLink": "https://chatbot-project.s3.ap-south-1.amazonaws.com/botgo/assets/form_template_04.png",
    "formData": [
      {
        "type": "heading",
        "formHeading": "Complaint Form",
        "alignment": "left",
        "color": "#000000",
        "size": "h1"
      },
      {
        "type": "subheading",
        "formSubHeading": "Give your honest opinion of what you think"
      },
      {
        "type": "divider",
        "color": "#000000",
        "thickness": 1
      },
      {
        "type": "text",
        "label": "Subject",
        "placeholder": ""
      },
      {
        "type": "button",
        "buttonType": "submit",
        "id": "kt_sign_up_submit",
        "text": "Next",
        "btnBgColor": "#18bd5b"
      },
      {
        "type": "textarea",
        "label": "Complaint Message",
        "rows": "4",
        "placeholder": "Enter your complaint message"
      },
      {
        "type": "text",
        "label": "Full Name",
        "placeholder": "Full name"
      },
      {
        "type": "text",
        "label": "Email:",
        "placeholder": "Enter you email"
      }
    ]
  },
  {
    "id": 6,
    "name": "IT Service Ticket ",
    "description": "Report IT-related issues and request services using this form.",
    "imageLink": "https://chatbot-project.s3.ap-south-1.amazonaws.com/botgo/assets/form_template_06.png",
    "formData": [
      {
        "type": "heading",
        "formHeading": "IT Service Ticket",
        "alignment": "left",
        "color": "#000000",
        "size": "h1"
      },
      {
        "type": "subheading",
        "formSubHeading": "Please provide the details of the problem"
      },
      {
        "type": "text",
        "label": "Full Name:",
        "placeholder": "Full name"
      },
      {
        "type": "text",
        "label": "Email:",
        "placeholder": "Enter you email"
      },
      {
        "type": "button",
        "buttonType": "submit",
        "id": "kt_sign_up_submit",
        "text": "Next",
        "btnBgColor": "#18bd5b"
      },
      {
        "type": "text",
        "label": "Department",
        "color": "#000000",
        "placeholder": ""
      },
      {
        "type": "text",
        "label": "Computer ID",
        "color": "#000000",
        "placeholder": ""
      },
      {
        "type": "file",
        "label": "Upload File",
        "color": "#000000",
        "name": "file",
        "accept": ".pdf, .doc, .docx"
      },
      {
        "type": "textarea",
        "label": "Describe the Problem",
        "rows": "5",
        "placeholder": "Type here..."
      }
    ]
  },
  {
    "id": 7,
    "name": "Tour Reservation",
    "description": "Reserve a spot for an upcoming tour.",
    "imageLink": "https://chatbot-project.s3.ap-south-1.amazonaws.com/botgo/assets/form_template_07.png",
    "formData": [
      {
        "type": "heading",
        "formHeading": "Tour Reservation Form",
        "alignment": "left",
        "color": "#000000",
        "size": "h1"
      },
      {
        "type": "subheading",
        "formSubHeading": "Let's know what you are interested to see!"
      },
      {
        "type": "text",
        "label": "Full Name",
        "placeholder": "Full name"
      },
      {
        "type": "text",
        "label": "Email:",
        "placeholder": "Enter you email"
      },
      {
        "type": "text",
        "label": "Phone number:",
        "placeholder": "Enter you mobile number"
      },
      {
        "type": "date",
        "label": "When are you planning to visit?",
        "color": "#000000"
      },
      {
        "type": "text",
        "label": "How many people are in your group?",
        "placeholder": "0"
      },
      {
        "type": "checkbox",
        "label": "Which tours or events are you most interested in?",
        "color": "#000000",
        "name": "checkbox",
        "options": [
          {
            "value": "Male",
            "text": "Revolution was just the beginning"
          },
          {
            "value": "Female",
            "text": "Transcendentalism"
          },
          {
            "value": "Other",
            "text": "Custom"
          },
          {
            "text": "Ghosts in the Gloaming",
            "value": "",
            "selected": false
          },
          {
            "text": "Gateposts, Grapes & Graveyards",
            "value": "",
            "selected": false
          },
          {
            "text": "Tavern Life",
            "value": "",
            "selected": false
          }
        ]
      },
      {
        "type": "divider",
        "color": "#000000",
        "thickness": 1
      },
      {
        "type": "button",
        "buttonType": "submit",
        "id": "kt_sign_up_submit",
        "text": "Submit",
        "btnBgColor": "#18bd5b"
      },
      {
        "type": "checkbox",
        "label": "What is the best way to contact you?",
        "color": "#000000",
        "name": "checkbox",
        "options": [
          {
            "value": "null",
            "text": "Email"
          },
          {
            "value": "null",
            "text": "Phone"
          },
          {
            "value": "null",
            "text": "Either"
          }
        ]
      },
      {
        "type": "radio",
        "label": "If phone, when is the best time of day for a call-back?",
        "color": "#000000",
        "name": "radio",
        "options": [
          {
            "value": "null",
            "text": "8-11 am"
          },
          {
            "value": "null",
            "text": "12-4 pm"
          },
          {
            "value": "null",
            "text": "6-10 pm"
          }
        ]
      },
      {
        "type": "textarea",
        "label": "Anything else we should know?",
        "rows": 4,
        "placeholder": "Type here..."
      },
      {
        "type": "textarea",
        "label": "And last, how did you hear about us?",
        "rows": "5",
        "placeholder": "Type here...."
      }
    ]
  },
  {
    "id": 8,
    "name": "Employment Application",
    "description": "Apply for employment opportunities.",
    "imageLink": "https://chatbot-project.s3.ap-south-1.amazonaws.com/botgo/assets/form_template_08.png",
    "formData": [
      {
        "type": "heading",
        "formHeading": "Employment Application",
        "alignment": "left",
        "color": "#000000",
        "size": "h1"
      },
      {
        "type": "subheading",
        "formSubHeading": "Fill the form below accurately indicating your potentials and suitability to job applying for."
      },
      {
        "type": "text",
        "label": "Full Name",
        "placeholder": "Full name"
      },
      {
        "type": "date",
        "label": "Birth Date",
        "color": "#000000"
      },
      {
        "type": "text",
        "label": "Phone Number:",
        "placeholder": "Enter you mobile number"
      },
      {
        "type": "text",
        "label": "Email:",
        "placeholder": "Enter you email"
      },
      {
        "type": "heading",
        "formHeading": "Address",
        "alignment": "left",
        "color": "#000000",
        "size": "h6"
      },
      {
        "type": "text",
        "label": "Street Address:",
        "placeholder": "Enter you street address"
      },
      {
        "type": "text",
        "label": "Street Address Line 2",
        "placeholder": "Enter your street address line 2"
      },
      {
        "type": "text",
        "label": "City",
        "placeholder": "Enter your city"
      },
      {
        "type": "text",
        "label": "State",
        "placeholder": "Enter you state"
      },
      {
        "type": "text",
        "label": "Postal / Zip Code",
        "placeholder": "Enter you Postal / Zip Code"
      },
      {
        "type": "button",
        "buttonType": "submit",
        "id": "kt_sign_up_submit",
        "text": "Submit",
        "btnBgColor": "#202122"
      },
      {
        "type": "banner",
        "bannerSrc": "https://www.jotform.com/uploads/ugurg/form_files/join-us.63a2be634d73e1.10397179.png",
        "label": "https://www.jotform.com/uploads/ugurg/form_files/join-us.63a2be634d73e1.10397179.png"
      },
      {
        "type": "checkbox",
        "label": "How were you referred to us?*",
        "color": "#000000",
        "name": "checkbox",
        "options": [
          {
            "value": "a",
            "text": "LInkedIn"
          },
          {
            "value": "b",
            "text": "Facebook"
          },
          {
            "value": "c",
            "text": "Referral"
          },
          {
            "text": "Walk-In",
            "value": "",
            "selected": false
          },
          {
            "text": "Newspaper Ad",
            "value": "",
            "selected": false
          },
          {
            "text": "Twitter",
            "value": "",
            "selected": false
          },
          {
            "text": "Other(Please specify)",
            "value": "",
            "selected": false
          }
        ]
      },
      {
        "type": "file",
        "label": "Resume and Files",
        "color": "#000000",
        "name": "file",
        "accept": ".pdf, .doc, .docx"
      },
      {
        "type": "textarea",
        "label": "Motivation letter",
        "rows": 4,
        "placeholder": ""
      },
      {
        "type": "heading",
        "formHeading": "Training and Certifications",
        "alignment": "left",
        "color": "#000000",
        "size": "h6"
      },
      {
        "type": "text",
        "label": "Title",
        "color": "#000000",
        "placeholder": ""
      },
      {
        "type": "date",
        "label": "Date",
        "color": "#000000"
      },
      {
        "type": "divider",
        "color": "#000000",
        "thickness": 1
      },
      {
        "type": "heading",
        "formHeading": "References",
        "alignment": "left",
        "color": "#000000",
        "size": "h1"
      },
      {
        "type": "subheading",
        "formSubHeading": " Please list two (2) references that are familiar with your work life."
      },
      {
        "type": "heading",
        "formHeading": "Reference",
        "alignment": "left",
        "color": "#000000",
        "size": "h5"
      },
      {
        "type": "text",
        "label": "Name",
        "placeholder": ""
      },
      {
        "type": "text",
        "label": "Title",
        "placeholder": ""
      },
      {
        "type": "text",
        "label": "Relationship",
        "placeholder": ""
      },
      {
        "type": "text",
        "label": "Email:",
        "placeholder": ""
      },
      {
        "type": "text",
        "label": "Phone number:",
        "placeholder": ""
      },
      {
        "type": "heading",
        "formHeading": "Reference",
        "alignment": "left",
        "color": "#000000",
        "size": "h5"
      },
      {
        "type": "text",
        "label": "Name",
        "placeholder": ""
      },
      {
        "type": "text",
        "label": "Title",
        "placeholder": ""
      },
      {
        "type": "text",
        "label": "Relationship",
        "placeholder": ""
      },
      {
        "type": "text",
        "label": "Email",
        "placeholder": ""
      },
      {
        "type": "text",
        "label": "Phone number:",
        "placeholder": ""
      }
    ]
  },
  {
    "id": 9,
    "name": "FeedBack Form",
    "description": "Apply for Feedback.",
    "imageLink": "https://chatbot-project.s3.ap-south-1.amazonaws.com/botgo/assets/form_template_09.png",
    "formData": [
      {
        "type": "heading",
        "formHeading": "Feedback Form",
        "alignment": "left",
        "color": "#000000",
        "size": "h1"
      },
      {
        "type": "subheading",
        "formSubHeading": "We would love to hear your thoughts, suggestions, concerns or problems with anything so we can improve!"
      },
      {
        "type": "divider",
        "color": "#000000",
        "thickness": 1
      },
      {
        "type": "radio",
        "label": "Feedback Type",
        "color": "#000000",
        "name": "radio",
        "options": [
          {
            "value": "Option A",
            "text": "Comments"
          },
          {
            "value": "Option B",
            "text": "Suggestions"
          },
          {
            "value": "Option C",
            "text": "Questions"
          }
        ]
      },
      {
        "type": "button",
        "buttonType": "submit",
        "id": "kt_sign_up_submit",
        "text": "Submit Feedback"
      },
      {
        "type": "textarea",
        "label": "Describe Your Feedback:",
        "rows": 4,
        "placeholder": "Enter your feedback"
      },
      {
        "type": "ratings",
        "label": "How would you rate us out of 5?",
        "color": "#ffdd00",
        "alignment": "left"
      },
      {
        "type": "text",
        "label": "Full Name:",
        "placeholder": "Full Name"
      },
      {
        "type": "text",
        "label": "Email:",
        "placeholder": "Enter you email"
      }
    ]
  },
  {
    "id": 10,
    "name": "Consent Form",
    "description": "Grant permission for medical procedures, treatments, or interventions.",
    "imageLink": "https://chatbot-project.s3.ap-south-1.amazonaws.com/botgo/assets/form_template_10.png",
    "formData": [
      {
        "type": "heading",
        "formHeading": "Online Medical Consent Form",
        "alignment": "center",
        "color": "#000000",
        "size": "h1"
      },
      {
        "type": "divider",
        "color": "#000000",
        "thickness": 1
      },
      {
        "type": "heading",
        "formHeading": "Patient Information",
        "alignment": "left",
        "color": "#000000",
        "size": "h1"
      },
      {
        "type": "subheading",
        "formSubHeading": "Please fill this form in a decent manner"
      },
      {
        "type": "text",
        "label": "Full Name",
        "placeholder": "Full name"
      },
      {
        "type": "button",
        "buttonType": "submit",
        "id": "kt_sign_up_submit",
        "text": "Next",
        "btnBgColor": "#0a1551"
      },
      {
        "type": "banner",
        "bannerSrc": "https://www.jotform.com/uploads/ugurg/form_files/Blue%20Modern%20Medical%20Center%20Minimalist%20Brochure.64be381edf5720.54997755.png",
        "label": "https://www.jotform.com/uploads/ugurg/form_files/Blue%20Modern%20Medical%20Center%20Minimalist%20Brochure.64be381edf5720.54997755.png"
      },
      {
        "type": "text",
        "label": "Age",
        "placeholder": "ex: 23"
      },
      {
        "type": "date",
        "label": "Date of Birth",
        "color": "#000000"
      },
      {
        "type": "select",
        "label": "Gender",
        "name": "null",
        "options": [
          {
            "value": "null",
            "text": "Male"
          },
          {
            "value": "null",
            "text": "Female",
            "selected": true
          }
        ]
      },
      {
        "type": "text",
        "label": "Email:",
        "placeholder": "Enter your email"
      },
      {
        "type": "text",
        "label": "Phone number:",
        "placeholder": "Enter your mobile number"
      },
      {
        "type": "heading",
        "formHeading": "Address",
        "alignment": "left",
        "color": "#000000",
        "size": "h4"
      },
      {
        "type": "text",
        "label": "Street Address:",
        "placeholder": "Enter your street address"
      },
      {
        "type": "text",
        "label": "Street Address Line 2",
        "placeholder": "Enter you street address line 2"
      },
      {
        "type": "text",
        "label": "City",
        "placeholder": "Enter your city"
      },
      {
        "type": "text",
        "label": "State",
        "placeholder": "Enter your state"
      },
      {
        "type": "text",
        "label": "Postal / Zip Code",
        "placeholder": "Enter your Postal / Zip Code"
      },
      {
        "type": "text",
        "label": "Health Insurance Name",
        "placeholder": ""
      },
      {
        "type": "text",
        "label": "Insurance Policy ID"
      },
      {
        "type": "text",
        "label": "Insurance Package/Type"
      },
      {
        "type": "heading",
        "formHeading": "Parent/Guardian or Emergency Contact Details",
        "alignment": "left",
        "color": "#000000",
        "size": "h1"
      },
      {
        "type": "text",
        "label": "Contact Person Name",
        "placeholder": "Full name"
      },
      {
        "type": "text",
        "label": "Phone number:",
        "placeholder": "Enter your mobile number"
      },
      {
        "type": "text",
        "label": "Secondary Phone number:",
        "placeholder": "Enter your secondary mobile number"
      },
      {
        "type": "heading",
        "formHeading": "Medical Data",
        "alignment": "left",
        "color": "#000000",
        "size": "h1"
      },
      {
        "type": "select",
        "label": "Blood Type",
        "name": "null",
        "options": [
          {
            "value": "null",
            "text": "A+"
          },
          {
            "value": "null",
            "text": "A-",
            "selected": true
          },
          {
            "value": "null",
            "text": "B+"
          },
          {
            "text": "B-",
            "value": "",
            "selected": false
          },
          {
            "text": "AB+",
            "value": "",
            "selected": false
          },
          {
            "text": "AB-",
            "value": "",
            "selected": false
          },
          {
            "text": "o+",
            "value": "",
            "selected": false
          },
          {
            "text": "o-",
            "value": "",
            "selected": false
          }
        ]
      },
      {
        "type": "radio",
        "label": "Are you wearing glasses or contact lenses?",
        "color": "#000000",
        "name": "radio",
        "options": [
          {
            "value": "null",
            "text": "Yes"
          },
          {
            "value": "null",
            "text": "No"
          }
        ]
      },
      {
        "type": "textarea",
        "label": "Are you vaccinated? If yes, please list the vaccines you have received.",
        "rows": 4,
        "placeholder": "Type here...."
      },
      {
        "type": "textarea",
        "label": "Do you have any known allergies? If yes, then please specify below.",
        "rows": 4,
        "placeholder": "Type here...."
      },
      {
        "type": "textarea",
        "label": "Are you currently taking medications? If yes, then please list the medications and the reasons why are you taking them.",
        "rows": 4,
        "placeholder": "Type here...."
      },
      {
        "type": "textarea",
        "label": "What is your current medical condition? Do you have any communicable disease, cardiovascular problems, diabetes, asthma etc.?",
        "rows": 4,
        "placeholder": ""
      },
      {
        "type": "checkbox",
        "label": "Acknowledgment, Authorization and Waiver",
        "color": "#000000",
        "name": "checkbox",
        "options": [
          {
            "value": "null",
            "text": "I authorize [ABC Hospital] to perform the treatment or necessary procedure to me/ or to my (for Parent/Guardian) dependent."
          },
          {
            "value": "null",
            "text": "I confirm that the doctors explained the procedure thoroughly to me and how it will help me with my current condition."
          },
          {
            "text": "I authorize the use of anesthesia and understands the side effects I can experience from it.",
            "value": "",
            "selected": false
          },
          {
            "text": "I authorize blood transfusion for emergency purposes.",
            "value": "",
            "selected": false
          },
          {
            "text": "I understand the risk and complications if I do not follow the instructions given to me after the procedure which involves post-treatment and follow-ups.",
            "value": "",
            "selected": false
          },
          {
            "text": "I understand that I am not allowed to eat or drink 4-6 hours before the procedure.",
            "value": "",
            "selected": false
          },
          {
            "text": "I acknowledge that all information I provided int his form is true and accurate.",
            "value": "",
            "selected": false
          }
        ]
      },
      {
        "type": "text",
        "label": "Patient/Parent/Guardian Signature",
        "placeholder": "Type here...."
      },
      {
        "type": "date",
        "label": "Date Signed",
        "color": "#050505"
      }
    ]
  },
  {
    "id": 11,
    "name": "Job Application Full",
    "description": "Gather information from job applicants efficiently",
    "cardBackground": "https://shots.jotform.com/elton/brick_wall_new_pxb.jpg",
    "cardstyle": "rgba(55, 15, 1, 0.8)",
    "imageLink": "https://chatbot-project.s3.ap-south-1.amazonaws.com/botgo/assets/form_template_03.png",
    "formData": [
      {
        "type": "heading",
        "formHeading": "Job Application Full",
        "alignment": "left",
        "color": "#ffffff",
        "size": "h1"
      },
      {
        "type": "subheading",
        "formSubHeading": "Please complete the form below to apply for a position with us."
      },
      {
        "type": "divider",
        "color": "#ffffff",
        "thickness": 1
      },
      {
        "type": "text",
        "label": "Full Name",
        "placeholder": "Full name"
      },
      {
        "type": "date",
        "label": "Birth Date",
        "color": "#ffffff"
      },
      {
        "type": "heading",
        "formHeading": "Current Address",
        "alignment": "left",
        "color": "#ffffff",
        "size": "h6"
      },
      {
        "type": "textarea",
        "label": "Your Complete Address",
        "rows": 4,
        "placeholder": ""
      },
      {
        "type": "text",
        "label": "Email:",
        "placeholder": "Enter you email"
      },
      {
        "type": "text",
        "label": "Phone number:",
        "placeholder": "Enter you mobile number"
      },
      {
        "type": "divider",
        "color": "#ffffff",
        "thickness": 1
      },
      {
        "type": "select",
        "label": "Position Applied",
        "name": "null",
        "options": [
          {
            "value": "Marketing Specialist",
            "text": "Marketing Specialist"
          },
          {
            "value": "Sales Manager",
            "text": "Sales Manager",
            "selected": true
          },
          {
            "value": "Product Lead",
            "text": "Product Lead"
          },
          {
            "text": "Developer",
            "value": "Developer",
            "selected": false
          }
        ]
      },
      {
        "type": "date",
        "label": "Available Start Date",
        "color": "#ffffff"
      },
      {
        "type": "switch",
        "label": "WFH preference",
        "color": "#ffffff",
        "checked": false
      },
      {
        "type": "switch",
        "label": "Immediate Joining",
        "color": "#ffffff",
        "checked": false
      },
      {
        "type": "checkbox",
        "label": "Which places are you comfortable in being interviewed?",
        "color": "#ffffff",
        "name": "checkbox",
        "options": [
          {
            "value": "Delhi-NCR",
            "text": "Delhi-NCR"
          },
          {
            "value": "Gurugram",
            "text": "Gurugram"
          },
          {
            "value": "Pune",
            "text": "Pune"
          },
          {
            "text": "Hyderabad",
            "value": "Hyderabad",
            "selected": false
          },
          {
            "text": "Bangalore",
            "value": "Bangalore",
            "selected": false
          },
          {
            "text": "Mumbai",
            "value": "Mumbai",
            "selected": false
          }
        ]
      },
      {
        "type": "divider",
        "color": "#ffffff",
        "thickness": 1
      },
      {
        "type": "checkbox",
        "label": "How do you wish to be contacted?",
        "color": "#ffffff",
        "name": "checkbox",
        "options": [
          {
            "value": "Phone",
            "text": "Phone"
          },
          {
            "value": "Email",
            "text": "Email"
          },
          {
            "value": "Letters",
            "text": "Letters"
          }
        ]
      },
      {
        "type": "radio",
        "label": "Free Pickup? ",
        "color": "#ffffff",
        "name": "radio",
        "options": [
          {
            "value": "pickOnArrival",
            "text": "Yes Please! - Pick me up on arrival"
          },
          {
            "value": "reachBySelf",
            "text": "No Thanks - I'll make my own way there"
          }
        ]
      },
      {
        "type": "datetime",
        "label": "What date and time work best for you?",
        "color": "#ffffff"
      },
      {
        "type": "time",
        "label": "Time by last you would be ready for pickup?",
        "color": "#ffffff"
      },
      {
        "type": "ratings",
        "label": "How have your previous experience been with Us?",
        "color": "#ffdd00",
        "alignment": "left"
      },
      {
        "type": "daterange",
        "label": "We may contact you between which dates?",
        "color": "#ffffff"
      },
      {
        "type": "file",
        "label": "Upload Your Resume",
        "color": "#ffffff",
        "name": "file",
        "accept": ".pdf, .doc, .docx",
        "isMultiple": false
      },
      {
        "type": "button",
        "buttonType": "submit",
        "id": "kt_sign_up_submit",
        "text": "Next",
        "btnBgColor": "#050505"
      },
      {
        "type": "textarea",
        "label": "Cover Letter",
        "rows": 4,
        "placeholder": ""
      },
      {
        "type": "captcha",
        "label": "Verify you're a human!",
        "inputTextName": "YoYo",
        "inputTextNameColor":"#ffdd00"
      },
      {
        "type": "signature",
        "label": "applicant's signature",
        "color": "#ffdd00",
        "padColor": "#f5f8fa",
        "alignment": "left",
        "width": 500,
        "height": 200
      }
    ]
  },
  {
    "id": 12,
    "name": "Welcome Page",
    "description": "Gather information from job applicants efficiently",
    "cardstyle": "",
    "formData": [
      {
        "type": "heading",
        "formHeading": "Welcome to Botgo Forms!",
        "alignment": "center",
        "color": "#000000",
        "size": "h1"
      },
      {
        "type": "divider",
        "color": "#000000",
        "thickness": 1
      },
      {
        "type": "subheading",
        "formSubHeading": "Please wait while you form is being loaded",
        "color": "#000000",
        "alignment": "center"
      },
      {
        "type": "button",
        "buttonType": "reset",
        "id": "kt_sign_up_submit",
        "text": "click to retry",
        "btnBgColor": "darkslategrey"
      }
    ]
  }
]
